newspaper,zipfile,year,numbertokens,numbercorrect
ChineseNewspaperCollection,CHC_20170412180707_00011.zip,1937,203020,189884
ChineseNewspaperCollection,CHC_20170412180707_00011.zip,1908,125995,117304
ChineseNewspaperCollection,CHC_20170412180707_00011.zip,1921,302026,281581
ChineseNewspaperCollection,CHC_20170412180707_00011.zip,1916,333633,299805
ChineseNewspaperCollection,CHC_20170412180707_00011.zip,1940,160904,150877
ChineseNewspaperCollection,CHC_20170412180707_00011.zip,1922,262708,247634
ChineseNewspaperCollection,CHC_20170412180707_00011.zip,1906,127913,116266
ChineseNewspaperCollection,CHC_20170412180707_00011.zip,1917,389663,351918
ChineseNewspaperCollection,CHC_20170412180707_00011.zip,1907,147826,136407
ChineseNewspaperCollection,CHC_20170412180707_00011.zip,1889,106261,100851
ChineseNewspaperCollection,CHC_20170412180707_00011.zip,1941,187076,176563
ChineseNewspaperCollection,CHC_20170412180707_00011.zip,1902,171421,158134
ChineseNewspaperCollection,CHC_20170412180707_00011.zip,1923,210046,197103
ChineseNewspaperCollection,CHC_20170412180707_00011.zip,1920,388996,358836
ChineseNewspaperCollection,CHC_20170412180707_00011.zip,1882,114271,106238
ChineseNewspaperCollection,CHC_20170412180707_00011.zip,1877,80216,75373
ChineseNewspaperCollection,CHC_20170412180707_00011.zip,1938,157715,148472
ChineseNewspaperCollection,CHC_20170412180707_00011.zip,1912,189336,172669
ChineseNewspaperCollection,CHC_20170412180707_00011.zip,1898,122271,114338
ChineseNewspaperCollection,CHC_20170412180707_00011.zip,1929,530600,472452
ChineseNewspaperCollection,CHC_20170412180707_00011.zip,1939,127823,119538
ChineseNewspaperCollection,CHC_20170412180707_00011.zip,1872,74915,70521
ChineseNewspaperCollection,CHC_20170412180707_00011.zip,1926,270635,237747
ChineseNewspaperCollection,CHC_20170412180707_00011.zip,1905,119200,108905
ChineseNewspaperCollection,CHC_20170412180707_00011.zip,1871,58522,54838
ChineseNewspaperCollection,CHC_20170412180707_00011.zip,1879,60124,56155
ChineseNewspaperCollection,CHC_20170412180707_00011.zip,1896,86635,82528
ChineseNewspaperCollection,CHC_20170412180707_00011.zip,1928,600895,537248
ChineseNewspaperCollection,CHC_20170412180707_00011.zip,1924,196494,183452
ChineseNewspaperCollection,CHC_20170412180707_00011.zip,1880,79934,74231
ChineseNewspaperCollection,CHC_20170412180707_00011.zip,1903,146623,129495
ChineseNewspaperCollection,CHC_20170412180707_00011.zip,1893,118827,112818
ChineseNewspaperCollection,CHC_20170412180707_00011.zip,1892,116837,109110
ChineseNewspaperCollection,CHC_20170412180707_00011.zip,1910,128132,117712
ChineseNewspaperCollection,CHC_20170412180707_00011.zip,1935,155385,145769
ChineseNewspaperCollection,CHC_20170412180707_00011.zip,1919,426415,390168
ChineseNewspaperCollection,CHC_20170412180707_00011.zip,1914,362033,328631
ChineseNewspaperCollection,CHC_20170412180707_00011.zip,1932,93750,86999
ChineseNewspaperCollection,CHC_20170412180707_00011.zip,1915,359474,322299
ChineseNewspaperCollection,CHC_20170412180707_00011.zip,1897,140084,131368
ChineseNewspaperCollection,CHC_20170412180707_00011.zip,1911,141256,130323
ChineseNewspaperCollection,CHC_20170412180707_00011.zip,1909,124326,115757
ChineseNewspaperCollection,CHC_20170412180707_00011.zip,1887,110060,101119
ChineseNewspaperCollection,CHC_20170412180707_00011.zip,1900,104696,97576
ChineseNewspaperCollection,CHC_20170412180707_00011.zip,1869,36626,34335
ChineseNewspaperCollection,CHC_20170412180707_00011.zip,1904,158373,146291
ChineseNewspaperCollection,CHC_20170412180707_00011.zip,1895,91420,86664
ChineseNewspaperCollection,CHC_20170412180707_00011.zip,1933,145601,134380
ChineseNewspaperCollection,CHC_20170412180707_00011.zip,1952,22879,21804
ChineseNewspaperCollection,CHC_20170412180707_00011.zip,1875,125467,117131
ChineseNewspaperCollection,CHC_20170412180707_00011.zip,1901,150216,135670
ChineseNewspaperCollection,CHC_20170412180707_00011.zip,1883,116426,108500
ChineseNewspaperCollection,CHC_20170412180707_00011.zip,1931,84394,78465
ChineseNewspaperCollection,CHC_20170412180707_00011.zip,1899,105741,99356
ChineseNewspaperCollection,CHC_20170412180707_00011.zip,1890,68847,64383
ChineseNewspaperCollection,CHC_20170412180707_00011.zip,1918,436288,402007
ChineseNewspaperCollection,CHC_20170412180707_00011.zip,1873,79836,75549
ChineseNewspaperCollection,CHC_20170412180707_00011.zip,1936,102831,96176
ChineseNewspaperCollection,CHC_20170412180707_00011.zip,1934,75718,70011
ChineseNewspaperCollection,CHC_20170412180707_00011.zip,1885,79921,74288
ChineseNewspaperCollection,CHC_20170412180707_00011.zip,1951,42141,40483
ChineseNewspaperCollection,CHC_20170412180707_00011.zip,1868,39855,34905
ChineseNewspaperCollection,CHC_20170412180707_00011.zip,1891,103648,94979
ChineseNewspaperCollection,CHC_20170412180707_00011.zip,1870,51346,47738
ChineseNewspaperCollection,CHC_20170412180707_00011.zip,1856,13904,13128
ChineseNewspaperCollection,CHC_20170412180707_00011.zip,1874,85726,80661
ChineseNewspaperCollection,CHC_20170412180707_00011.zip,1946,4440,4150
ChineseNewspaperCollection,CHC_20170412180707_00011.zip,1855,17570,16123
ChineseNewspaperCollection,CHC_20170412180707_00011.zip,1884,117686,109362
ChineseNewspaperCollection,CHC_20170412180707_00011.zip,1894,151729,143494
ChineseNewspaperCollection,CHC_20170412180707_00011.zip,1861,36696,31501
ChineseNewspaperCollection,CHC_20170412180707_00011.zip,1853,29379,26495
ChineseNewspaperCollection,CHC_20170412180707_00011.zip,1859,18093,15640
ChineseNewspaperCollection,CHC_20170412180707_00011.zip,1927,436373,385748
ChineseNewspaperCollection,CHC_20170412180707_00011.zip,1888,65233,60092
ChineseNewspaperCollection,CHC_20170412180707_00011.zip,1863,24647,19851
ChineseNewspaperCollection,CHC_20170412180707_00011.zip,1865,27498,21392
ChineseNewspaperCollection,CHC_20170412180707_00011.zip,1913,77652,71594
ChineseNewspaperCollection,CHC_20170412180707_00011.zip,1950,11804,11247
ChineseNewspaperCollection,CHC_20170412180707_00011.zip,1864,29088,22780
ChineseNewspaperCollection,CHC_20170412180707_00011.zip,1930,236806,208643
ChineseNewspaperCollection,CHC_20170412180707_00011.zip,1878,77625,74047
ChineseNewspaperCollection,CHC_20170412180707_00011.zip,1852,25815,23841
ChineseNewspaperCollection,CHC_20170412180707_00011.zip,1854,14245,13004
ChineseNewspaperCollection,CHC_20170412180707_00011.zip,1867,40924,36406
ChineseNewspaperCollection,CHC_20170412180707_00011.zip,1851,20346,18807
ChineseNewspaperCollection,CHC_20170412180707_00011.zip,1850,12612,11744
ChineseNewspaperCollection,CHC_20170412180707_00011.zip,1857,19698,18004
ChineseNewspaperCollection,CHC_20170412180707_00011.zip,1866,18083,14755
ChineseNewspaperCollection,CHC_20170412180707_00011.zip,1858,17251,15891
ChineseNewspaperCollection,CHC_20170412180707_00011.zip,1881,92413,86771
ChineseNewspaperCollection,CHC_20170412180707_00011.zip,1886,76499,69880
ChineseNewspaperCollection,CHC_20170412180707_00011.zip,1925,117491,100116
ChineseNewspaperCollection,CHC_20170412180707_00011.zip,1862,12504,10997
ChineseNewspaperCollection,CHC_20170412180707_00011.zip,1876,101581,94256
ChineseNewspaperCollection,CHC_20170412180707_00011.zip,1860,13938,12186
ChineseNewspaperCollection,CHC_20170412180707_00011.zip,1953,8786,8231
ChineseNewspaperCollection,CHC_20170412180918_00020.zip,1930,314054,272670
ChineseNewspaperCollection,CHC_20170412180918_00020.zip,1863,11937,10350
ChineseNewspaperCollection,CHC_20170412180918_00020.zip,1929,745544,657224
ChineseNewspaperCollection,CHC_20170412180918_00020.zip,1927,445266,387781
ChineseNewspaperCollection,CHC_20170412180918_00020.zip,1936,87108,81539
ChineseNewspaperCollection,CHC_20170412180918_00020.zip,1926,385568,334081
ChineseNewspaperCollection,CHC_20170412180918_00020.zip,1928,658041,588752
ChineseNewspaperCollection,CHC_20170412180918_00020.zip,1925,242945,203277
ChineseNewspaperCollection,CHC_20170412180918_00020.zip,1919,395283,360326
ChineseNewspaperCollection,CHC_20170412180918_00020.zip,1931,114602,103066
ChineseNewspaperCollection,CHC_20170412180918_00020.zip,1934,71386,67005
ChineseNewspaperCollection,CHC_20170412180918_00020.zip,1915,296525,266229
ChineseNewspaperCollection,CHC_20170412180918_00020.zip,1917,363548,327933
ChineseNewspaperCollection,CHC_20170412180918_00020.zip,1916,358716,320789
ChineseNewspaperCollection,CHC_20170412180918_00020.zip,1864,38932,31896
ChineseNewspaperCollection,CHC_20170412180918_00020.zip,1939,110096,104266
ChineseNewspaperCollection,CHC_20170412180918_00020.zip,1918,392142,360642
ChineseNewspaperCollection,CHC_20170412180918_00020.zip,1932,61353,57229
ChineseNewspaperCollection,CHC_20170412180918_00020.zip,1938,169934,160359
ChineseNewspaperCollection,CHC_20170412180918_00020.zip,1921,229846,214632
ChineseNewspaperCollection,CHC_20170412180918_00020.zip,1920,343956,316219
ChineseNewspaperCollection,CHC_20170412180918_00020.zip,1933,148997,139047
ChineseNewspaperCollection,CHC_20170412180918_00020.zip,1892,105003,98653
ChineseNewspaperCollection,CHC_20170412180918_00020.zip,1924,203371,189546
ChineseNewspaperCollection,CHC_20170412180918_00020.zip,1886,61580,56035
ChineseNewspaperCollection,CHC_20170412180918_00020.zip,1909,151680,141985
ChineseNewspaperCollection,CHC_20170412180918_00020.zip,1872,81952,77150
ChineseNewspaperCollection,CHC_20170412180918_00020.zip,1876,61865,57521
ChineseNewspaperCollection,CHC_20170412180918_00020.zip,1912,142420,132564
ChineseNewspaperCollection,CHC_20170412180918_00020.zip,1878,69351,65665
ChineseNewspaperCollection,CHC_20170412180918_00020.zip,1891,57330,53460
ChineseNewspaperCollection,CHC_20170412180918_00020.zip,1911,143555,133380
ChineseNewspaperCollection,CHC_20170412180918_00020.zip,1882,100731,93446
ChineseNewspaperCollection,CHC_20170412180918_00020.zip,1898,103168,97701
ChineseNewspaperCollection,CHC_20170412180918_00020.zip,1893,109320,103866
ChineseNewspaperCollection,CHC_20170412180918_00020.zip,1907,143863,134269
ChineseNewspaperCollection,CHC_20170412180918_00020.zip,1914,316728,284764
ChineseNewspaperCollection,CHC_20170412180918_00020.zip,1937,133680,122208
ChineseNewspaperCollection,CHC_20170412180918_00020.zip,1873,80027,76221
ChineseNewspaperCollection,CHC_20170412180918_00020.zip,1941,179034,168081
ChineseNewspaperCollection,CHC_20170412180918_00020.zip,1902,165624,151869
ChineseNewspaperCollection,CHC_20170412180918_00020.zip,1900,137843,129169
ChineseNewspaperCollection,CHC_20170412180918_00020.zip,1922,185718,174295
ChineseNewspaperCollection,CHC_20170412180918_00020.zip,1888,65238,60739
ChineseNewspaperCollection,CHC_20170412180918_00020.zip,1877,60211,56639
ChineseNewspaperCollection,CHC_20170412180918_00020.zip,1913,39012,35714
ChineseNewspaperCollection,CHC_20170412180918_00020.zip,1906,137899,124869
ChineseNewspaperCollection,CHC_20170412180918_00020.zip,1889,80031,75100
ChineseNewspaperCollection,CHC_20170412180918_00020.zip,1905,61934,54297
ChineseNewspaperCollection,CHC_20170412180918_00020.zip,1883,110114,102593
ChineseNewspaperCollection,CHC_20170412180918_00020.zip,1887,63707,58837
ChineseNewspaperCollection,CHC_20170412180918_00020.zip,1894,129896,123553
ChineseNewspaperCollection,CHC_20170412180918_00020.zip,1874,67010,63316
ChineseNewspaperCollection,CHC_20170412180918_00020.zip,1904,138368,128422
ChineseNewspaperCollection,CHC_20170412180918_00020.zip,1897,150287,140938
ChineseNewspaperCollection,CHC_20170412180918_00020.zip,1903,138422,123400
ChineseNewspaperCollection,CHC_20170412180918_00020.zip,1923,174617,163589
ChineseNewspaperCollection,CHC_20170412180918_00020.zip,1910,167600,155580
ChineseNewspaperCollection,CHC_20170412180918_00020.zip,1880,63594,59913
ChineseNewspaperCollection,CHC_20170412180918_00020.zip,1901,91678,83434
ChineseNewspaperCollection,CHC_20170412180918_00020.zip,1908,120808,112831
ChineseNewspaperCollection,CHC_20170412180918_00020.zip,1881,87008,82014
ChineseNewspaperCollection,CHC_20170412180918_00020.zip,1940,122677,115571
ChineseNewspaperCollection,CHC_20170412180918_00020.zip,1879,52001,49361
ChineseNewspaperCollection,CHC_20170412180918_00020.zip,1884,64859,59187
ChineseNewspaperCollection,CHC_20170412180918_00020.zip,1885,80739,74874
ChineseNewspaperCollection,CHC_20170412180918_00020.zip,1896,139498,132350
ChineseNewspaperCollection,CHC_20170412180918_00020.zip,1899,92945,87805
ChineseNewspaperCollection,CHC_20170412180918_00020.zip,1871,53652,49880
ChineseNewspaperCollection,CHC_20170412180918_00020.zip,1875,60202,55809
ChineseNewspaperCollection,CHC_20170412180918_00020.zip,1890,71588,67198
ChineseNewspaperCollection,CHC_20170412180918_00020.zip,1870,32936,30360
ChineseNewspaperCollection,CHC_20170412180918_00020.zip,1935,96396,90615
ChineseNewspaperCollection,CHC_20170412180918_00020.zip,1895,45935,43474
ChineseNewspaperCollection,CHC_20170412180918_00020.zip,1951,2305,2218
ChineseNewspaperCollection,CHC_20170412180918_00020.zip,1857,16756,15805
ChineseNewspaperCollection,CHC_20170412180918_00020.zip,1859,16707,14664
ChineseNewspaperCollection,CHC_20170412180918_00020.zip,1853,28184,25821
ChineseNewspaperCollection,CHC_20170412180918_00020.zip,1866,20859,15612
ChineseNewspaperCollection,CHC_20170412180918_00020.zip,1861,15364,12983
ChineseNewspaperCollection,CHC_20170412180918_00020.zip,1851,22320,20529
ChineseNewspaperCollection,CHC_20170412180918_00020.zip,1852,27450,25319
ChineseNewspaperCollection,CHC_20170412180918_00020.zip,1868,46613,41057
ChineseNewspaperCollection,CHC_20170412180918_00020.zip,1854,22318,20356
ChineseNewspaperCollection,CHC_20170412180918_00020.zip,1856,19514,17589
ChineseNewspaperCollection,CHC_20170412180918_00020.zip,1869,29467,27764
ChineseNewspaperCollection,CHC_20170412180918_00020.zip,1862,22218,19023
ChineseNewspaperCollection,CHC_20170412180918_00020.zip,1867,38995,33966
ChineseNewspaperCollection,CHC_20170412180918_00020.zip,1850,5238,4758
ChineseNewspaperCollection,CHC_20170412180918_00020.zip,1855,22107,20282
ChineseNewspaperCollection,CHC_20170412180918_00020.zip,1858,15323,13287
ChineseNewspaperCollection,CHC_20170412180918_00020.zip,1860,31868,29191
ChineseNewspaperCollection,CHC_20170412180918_00020.zip,1865,22602,16277
ChineseNewspaperCollection,CHC_20170412180918_00020.zip,1952,477,453
ChineseNewspaperCollection,CHC_20170412180918_00020.zip,1953,13,10
ChineseNewspaperCollection,CHC_20170412180918_00020.zip,1946,78,72
