Table build complete. Time elapsed =  1.5107989311218262e-05 hours.
Parsing file  LosAngelesTimes/LAT_20170329215506_00041.zip
Parsing file  LosAngelesTimes/LAT_20170329223138_00012.zip
Parsing file  LosAngelesTimes/LAT_20170329215607_00042.zip
Parsing file  LosAngelesTimes/LAT_20170329223140_00013.zip
Parsing file  LosAngelesTimes/LAT_20170329215608_00043.zip
Parsing file  LosAngelesTimes/LAT_20170329223141_00041.zip
Parsing file  LosAngelesTimes/LAT_20170329215609_00044.zip
Parsing file  LosAngelesTimes/LAT_20170329223142_00014.zip
Parsing file  LosAngelesTimes/LAT_20170329215712_00045.zip
Parsing file  LosAngelesTimes/LAT_20170329223143_00042.zip
Parsing file  LosAngelesTimes/LAT_20170329215713_00001.zip
Parsing file  LosAngelesTimes/LAT_20170329223244_00015.zip
Parsing file  LosAngelesTimes/LAT_20170329215714_00046.zip
Parsing file  LosAngelesTimes/LAT_20170329223245_00043.zip
Parsing file  LosAngelesTimes/LAT_20170329215815_00002.zip
Parsing file  LosAngelesTimes/LAT_20170329223246_00016.zip
Parsing file  LosAngelesTimes/LAT_20170329215817_00003.zip
Parsing file  LosAngelesTimes/LAT_20170329223247_00017.zip
Parsing file  LosAngelesTimes/LAT_20170329215918_00004.zip
Parsing file  LosAngelesTimes/LAT_20170329223248_00044.zip
Parsing file  LosAngelesTimes/LAT_20170329215919_00005.zip
Parsing file  LosAngelesTimes/LAT_20170329223349_00018.zip
Parsing file  LosAngelesTimes/LAT_20170329220020_00006.zip
Parsing file  LosAngelesTimes/LAT_20170329223350_00045.zip
Parsing file  LosAngelesTimes/LAT_20170329220023_00007.zip
Parsing file  LosAngelesTimes/LAT_20170329223351_00019.zip
Parsing file  LosAngelesTimes/LAT_20170329220024_00008.zip
Parsing file  LosAngelesTimes/LAT_20170329223354_00046.zip
Parsing file  LosAngelesTimes/LAT_20170329220126_00009.zip
Parsing file  LosAngelesTimes/LAT_20170329223455_00047.zip
Parsing file  LosAngelesTimes/LAT_20170329220127_00010.zip
Parsing file  LosAngelesTimes/LAT_20171005231413_00001.zip
Parsing file  LosAngelesTimes/LAT_20170329220228_00011.zip
Parsing file  LosAngelesTimes/LAT_20171005232927_00001.zip
Parsing file  LosAngelesTimes/LAT_20170329220230_00012.zip
Parsing file  LosAngelesTimes/LAT_20171005233030_00002.zip
Parsing file  LosAngelesTimes/LAT_20170329220332_00013.zip
Parsing file  LosAngelesTimes/LAT_20171005233036_00003.zip
Parsing file  LosAngelesTimes/LAT_20170329220333_00014.zip
Parsing file  LosAngelesTimes/LAT_20171005233138_00004.zip
Time elapsed =  20.908906726572248 hours. Parsing of  LosAngelesTimes_2  is complete.
slurmstepd: error: Exceeded step memory limit at some point.
slurmstepd: error: This may or may not result in some failure. The SLURM utilizes Linux cgroups for resource containment. For reference please read the explanation in the bug report: https://bugs.schedmd.com/show_bug.cgi?id=3214#c4
