Table build complete. Time elapsed =  0.0001587571700414022 hours.
Parsing file  NewYorkAmsterdamNews/NYA_20171110185909_00015.zip
Parsing file  NewYorkAmsterdamNews/NYA_20171110185553_00002.zip
Parsing file  NewYorkAmsterdamNews/NYA_20171110185554_00003.zip
Parsing file  NewYorkAmsterdamNews/NYA_20171110185912_00017.zip
Parsing file  NewYorkAmsterdamNews/NYA_20171110185657_00006.zip
Parsing file  NewYorkAmsterdamNews/NYA_20171110191304_00013.zip
Parsing file  NewYorkAmsterdamNews/NYA_20171110191046_00002.zip
Parsing file  NewYorkAmsterdamNews/NYA_20171110190124_00025.zip
Parsing file  NewYorkAmsterdamNews/NYA_20171110191409_00017.zip
Parsing file  NewYorkAmsterdamNews/NYA_20171110185911_00016.zip
Parsing file  NewYorkAmsterdamNews/NYA_20171110191308_00016.zip
Parsing file  NewYorkAmsterdamNews/NYA_20171110185808_00014.zip
Parsing file  NewYorkAmsterdamNews/NYA_20171110190122_00024.zip
Parsing file  NewYorkAmsterdamNews/NYA_20171110191259_00009.zip
Parsing file  NewYorkAmsterdamNews/NYA_20171110185600_00007.zip
Parsing file  NewYorkAmsterdamNews/NYA_20171110191200_00010.zip
Parsing file  NewYorkAmsterdamNews/NYA_20171110191307_00015.zip
Parsing file  NewYorkAmsterdamNews/NYA_20171110185914_00019.zip
Parsing file  NewYorkAmsterdamNews/NYA_20171110190229_00029.zip
Parsing file  NewYorkAmsterdamNews/NYA_20171110190019_00021.zip
Parsing file  NewYorkAmsterdamNews/NYA_20171110191050_00004.zip
Parsing file  NewYorkAmsterdamNews/NYA_20171110185703_00010.zip
Parsing file  NewYorkAmsterdamNews/NYA_20171110190126_00027.zip
Parsing file  NewYorkAmsterdamNews/NYA_20171110191153_00006.zip
Parsing file  NewYorkAmsterdamNews/NYA_20171110185807_00013.zip
Parsing file  NewYorkAmsterdamNews/NYA_20171110190228_00028.zip
Parsing file  NewYorkAmsterdamNews/NYA_20171110191203_00012.zip
Parsing file  NewYorkAmsterdamNews/NYA_20171110191201_00011.zip
Parsing file  NewYorkAmsterdamNews/NYA_20171110190021_00023.zip
Parsing file  NewYorkAmsterdamNews/NYA_20171110185804_00011.zip
Parsing file  NewYorkAmsterdamNews/NYA_20171110191156_00008.zip
Parsing file  NewYorkAmsterdamNews/NYA_20171110185550_00001.zip
Parsing file  NewYorkAmsterdamNews/NYA_20171110190125_00026.zip
Parsing file  NewYorkAmsterdamNews/NYA_20171110185701_00008.zip
Parsing file  NewYorkAmsterdamNews/NYA_20171110185656_00005.zip
Parsing file  NewYorkAmsterdamNews/NYA_20171110191049_00003.zip
Parsing file  NewYorkAmsterdamNews/NYA_20171110191151_00005.zip
Parsing file  NewYorkAmsterdamNews/NYA_20171110190017_00020.zip
Parsing file  NewYorkAmsterdamNews/NYA_20171110191154_00007.zip
Parsing file  NewYorkAmsterdamNews/NYA_20171110191045_00001.zip
Parsing file  NewYorkAmsterdamNews/NYA_20171110191305_00014.zip
Parsing file  NewYorkAmsterdamNews/NYA_20171110185702_00009.zip
Parsing file  NewYorkAmsterdamNews/NYA_20171110185805_00012.zip
Parsing file  NewYorkAmsterdamNews/NYA_20171110185913_00018.zip
Parsing file  NewYorkAmsterdamNews/NYA_20171110185655_00004.zip
Parsing file  NewYorkAmsterdamNews/NYA_20171110190020_00022.zip
Time elapsed =  25.78701188166936 hours. Parsing of  NewYorkAmsterdamNews_0  is complete.
