Table build complete. Time elapsed =  9.115987353854709e-05 hours.
Parsing file  LosAngelesTimes/LAT_20170329214208_00001.zip
Parsing file  LosAngelesTimes/LAT_20170329221836_00012.zip
Parsing file  LosAngelesTimes/LAT_20170329214310_00002.zip
Parsing file  LosAngelesTimes/LAT_20170329221839_00013.zip
Parsing file  LosAngelesTimes/LAT_20170329214311_00003.zip
Parsing file  LosAngelesTimes/LAT_20170329221941_00014.zip
Parsing file  LosAngelesTimes/LAT_20170329214313_00004.zip
Parsing file  LosAngelesTimes/LAT_20170329221942_00015.zip
Parsing file  LosAngelesTimes/LAT_20170329214414_00005.zip
Parsing file  LosAngelesTimes/LAT_20170329222043_00016.zip
Parsing file  LosAngelesTimes/LAT_20170329214415_00006.zip
Parsing file  LosAngelesTimes/LAT_20170329222044_00017.zip
Parsing file  LosAngelesTimes/LAT_20170329214416_00007.zip
Parsing file  LosAngelesTimes/LAT_20170329222047_00018.zip
Parsing file  LosAngelesTimes/LAT_20170329214517_00008.zip
Parsing file  LosAngelesTimes/LAT_20170329222149_00019.zip
Parsing file  LosAngelesTimes/LAT_20170329214521_00009.zip
Parsing file  LosAngelesTimes/LAT_20170329222152_00020.zip
Parsing file  LosAngelesTimes/LAT_20170329214522_00010.zip
Parsing file  LosAngelesTimes/LAT_20170329222255_00021.zip
Parsing file  LosAngelesTimes/LAT_20170329214623_00011.zip
Parsing file  LosAngelesTimes/LAT_20170329222257_00022.zip
Parsing file  LosAngelesTimes/LAT_20170329214625_00012.zip
Parsing file  LosAngelesTimes/LAT_20170329222301_00024.zip
Parsing file  LosAngelesTimes/LAT_20170329214626_00013.zip
Parsing file  LosAngelesTimes/LAT_20170329222359_00023.zip
Parsing file  LosAngelesTimes/LAT_20170329214727_00014.zip
Parsing file  LosAngelesTimes/LAT_20170329222402_00025.zip
Parsing file  LosAngelesTimes/LAT_20170329214728_00015.zip
Parsing file  LosAngelesTimes/LAT_20170329222404_00026.zip
Parsing file  LosAngelesTimes/LAT_20170329214729_00016.zip
Parsing file  LosAngelesTimes/LAT_20170329222505_00027.zip
Parsing file  LosAngelesTimes/LAT_20170329214831_00017.zip
Parsing file  LosAngelesTimes/LAT_20170329222506_00028.zip
Parsing file  LosAngelesTimes/LAT_20170329214832_00018.zip
Parsing file  LosAngelesTimes/LAT_20170329222508_00029.zip
Parsing file  LosAngelesTimes/LAT_20170329214833_00019.zip
Parsing file  LosAngelesTimes/LAT_20170329222610_00030.zip
Parsing file  LosAngelesTimes/LAT_20170329214936_00020.zip
Parsing file  LosAngelesTimes/LAT_20170329222611_00031.zip
Parsing file  LosAngelesTimes/LAT_20170329214937_00021.zip
Parsing file  LosAngelesTimes/LAT_20170329222714_00001.zip
Parsing file  LosAngelesTimes/LAT_20170329214938_00022.zip
Parsing file  LosAngelesTimes/LAT_20170329222715_00032.zip
Parsing file  LosAngelesTimes/LAT_20170329215039_00023.zip
Parsing file  LosAngelesTimes/LAT_20170329222716_00002.zip
Parsing file  LosAngelesTimes/LAT_20170329215040_00024.zip
Parsing file  LosAngelesTimes/LAT_20170329222717_00033.zip
Parsing file  LosAngelesTimes/LAT_20170329215042_00025.zip
Parsing file  LosAngelesTimes/LAT_20170329222818_00003.zip
Parsing file  LosAngelesTimes/LAT_20170329215144_00026.zip
Parsing file  LosAngelesTimes/LAT_20170329222819_00034.zip
Parsing file  LosAngelesTimes/LAT_20170329215146_00027.zip
Parsing file  LosAngelesTimes/LAT_20170329222820_00004.zip
Parsing file  LosAngelesTimes/LAT_20170329215147_00028.zip
Parsing file  LosAngelesTimes/LAT_20170329222822_00005.zip
Parsing file  LosAngelesTimes/LAT_20170329215150_00029.zip
Parsing file  LosAngelesTimes/LAT_20170329222823_00035.zip
Parsing file  LosAngelesTimes/LAT_20170329215251_00030.zip
Parsing file  LosAngelesTimes/LAT_20170329222924_00006.zip
Parsing file  LosAngelesTimes/LAT_20170329215252_00031.zip
Parsing file  LosAngelesTimes/LAT_20170329222925_00036.zip
Parsing file  LosAngelesTimes/LAT_20170329215355_00032.zip
Parsing file  LosAngelesTimes/LAT_20170329222926_00007.zip
Parsing file  LosAngelesTimes/LAT_20170329215356_00033.zip
Parsing file  LosAngelesTimes/LAT_20170329222927_00037.zip
Parsing file  LosAngelesTimes/LAT_20170329215358_00034.zip
Parsing file  LosAngelesTimes/LAT_20170329222928_00008.zip
Parsing file  LosAngelesTimes/LAT_20170329215400_00036.zip
Parsing file  LosAngelesTimes/LAT_20170329223029_00009.zip
Parsing file  LosAngelesTimes/LAT_20170329215401_00037.zip
Parsing file  LosAngelesTimes/LAT_20170329223030_00038.zip
Parsing file  LosAngelesTimes/LAT_20170329215402_00038.zip
Parsing file  LosAngelesTimes/LAT_20170329223034_00010.zip
Parsing file  LosAngelesTimes/LAT_20170329215459_00035.zip
Parsing file  LosAngelesTimes/LAT_20170329223035_00039.zip
Parsing file  LosAngelesTimes/LAT_20170329215503_00039.zip
Parsing file  LosAngelesTimes/LAT_20170329223036_00011.zip
Parsing file  LosAngelesTimes/LAT_20170329215505_00040.zip
Parsing file  LosAngelesTimes/LAT_20170329223137_00040.zip
Time elapsed =  47.39504757417573 hours. Parsing of  LosAngelesTimes_1  is complete.
slurmstepd: error: Exceeded step memory limit at some point.
slurmstepd: error: This may or may not result in some failure. The SLURM utilizes Linux cgroups for resource containment. For reference please read the explanation in the bug report: https://bugs.schedmd.com/show_bug.cgi?id=3214#c4
