Table build complete. Time elapsed =  0.00015720374054378934 hours.
Parsing file  Newsday/Newsday_20171006224041_00025.zip
Parsing file  Newsday/Newsday_20171006231504_00036.zip
Parsing file  Newsday/Newsday_20171006224142_00026.zip
Parsing file  Newsday/Newsday_20171006231506_00037.zip
Parsing file  Newsday/Newsday_20171006224143_00027.zip
Parsing file  Newsday/Newsday_20171006231508_00038.zip
Parsing file  Newsday/Newsday_20171006224146_00028.zip
Parsing file  Newsday/Newsday_20171006231610_00039.zip
Parsing file  Newsday/Newsday_20171006224247_00029.zip
Parsing file  Newsday/Newsday_20171006231611_00001.zip
Parsing file  Newsday/Newsday_20171006224248_00030.zip
Parsing file  Newsday/Newsday_20171006231613_00040.zip
Parsing file  Newsday/Newsday_20171006224249_00031.zip
Parsing file  Newsday/Newsday_20171006231614_00041.zip
Parsing file  Newsday/Newsday_20171006224350_00032.zip
Parsing file  Newsday/Newsday_20171006231715_00042.zip
Parsing file  Newsday/Newsday_20171006224352_00033.zip
Parsing file  Newsday/Newsday_20171006231716_00043.zip
Parsing file  Newsday/Newsday_20171006224353_00034.zip
Parsing file  Newsday/Newsday_20171006231717_00044.zip
Parsing file  Newsday/Newsday_20171006224454_00035.zip
Parsing file  Newsday/Newsday_20171006231818_00045.zip
Parsing file  Newsday/Newsday_20171006224455_00036.zip
Parsing file  Newsday/Newsday_20171006231819_00046.zip
Parsing file  Newsday/Newsday_20171006224456_00037.zip
Parsing file  Newsday/Newsday_20171006231821_00047.zip
Parsing file  Newsday/Newsday_20171006224501_00040.zip
Parsing file  Newsday/Newsday_20171006231923_00048.zip
Parsing file  Newsday/Newsday_20171006224557_00038.zip
Parsing file  Newsday/Newsday_20171006231924_00049.zip
Parsing file  Newsday/Newsday_20171006224559_00039.zip
Parsing file  Newsday/Newsday_20171006231925_00050.zip
Time elapsed =  18.005602182017434 hours. Parsing of  Newsday_2  is complete.
