Table build complete. Time elapsed =  0.00012502398755815294 hours.
Parsing file  BostonGlobe/BG_20151210232924_00004.zip
Parsing file  BostonGlobe/BG_20151211042321_00012.zip
Parsing file  BostonGlobe/BG_20151210233027_00005.zip
Parsing file  BostonGlobe/BG_20151211042322_00013.zip
Parsing file  BostonGlobe/BG_20151210233128_00006.zip
Parsing file  BostonGlobe/BG_20151211042424_00014.zip
Parsing file  BostonGlobe/BG_20151210233229_00007.zip
Parsing file  BostonGlobe/BG_20151211042525_00015.zip
Parsing file  BostonGlobe/BG_20151210233331_00008.zip
Parsing file  BostonGlobe/BG_20151211042526_00016.zip
Parsing file  BostonGlobe/BG_20151210233332_00009.zip
Parsing file  BostonGlobe/BG_20151211042627_00017.zip
Parsing file  BostonGlobe/BG_20151210233433_00010.zip
Parsing file  BostonGlobe/BG_20151211042729_00018.zip
Parsing file  BostonGlobe/BG_20151210234137_00001.zip
Parsing file  BostonGlobe/BG_20151211043030_00001.zip
Parsing file  BostonGlobe/BG_20151210234239_00002.zip
Parsing file  BostonGlobe/BG_20151211043133_00002.zip
Parsing file  BostonGlobe/BG_20151210234340_00003.zip
Parsing file  BostonGlobe/BG_20151211043234_00003.zip
Parsing file  BostonGlobe/BG_20151210234441_00004.zip
Parsing file  BostonGlobe/BG_20151211043235_00004.zip
Parsing file  BostonGlobe/BG_20151210234542_00005.zip
Parsing file  BostonGlobe/BG_20151211043336_00005.zip
Parsing file  BostonGlobe/BG_20151210234545_00006.zip
Parsing file  BostonGlobe/BG_20151211043437_00006.zip
Parsing file  BostonGlobe/BG_20151210234647_00007.zip
Parsing file  BostonGlobe/BG_20151211043438_00007.zip
Parsing file  BostonGlobe/BG_20151210234748_00008.zip
Parsing file  BostonGlobe/BG_20151211043539_00008.zip
Parsing file  BostonGlobe/BG_20151210234849_00009.zip
Parsing file  BostonGlobe/BG_20151211043640_00009.zip
Parsing file  BostonGlobe/BG_20151210235753_00001.zip
Parsing file  BostonGlobe/BG_20151211043641_00010.zip
Parsing file  BostonGlobe/BG_20151210235854_00002.zip
Parsing file  BostonGlobe/BG_20151211043742_00011.zip
Parsing file  BostonGlobe/BG_20151210235855_00003.zip
Parsing file  BostonGlobe/BG_20151211043743_00012.zip
Parsing file  BostonGlobe/BG_20151210235956_00004.zip
Parsing file  BostonGlobe/BG_20151211043844_00013.zip
Parsing file  BostonGlobe/BG_20151211000059_00005.zip
Parsing file  BostonGlobe/BG_20151211043946_00014.zip
Parsing file  BostonGlobe/BG_20151211000102_00006.zip
Parsing file  BostonGlobe/BG_20151211043947_00015.zip
Parsing file  BostonGlobe/BG_20151211000203_00007.zip
Parsing file  BostonGlobe/BG_20151211044048_00016.zip
Parsing file  BostonGlobe/BG_20151211000305_00008.zip
Parsing file  BostonGlobe/BG_20151211044149_00017.zip
Parsing file  BostonGlobe/BG_20151211000406_00009.zip
Parsing file  BostonGlobe/BG_20151211044251_00018.zip
Parsing file  BostonGlobe/BG_20151211000407_00010.zip
Parsing file  BostonGlobe/BG_20151211044653_00001.zip
Parsing file  BostonGlobe/BG_20151211001111_00001.zip
Parsing file  BostonGlobe/BG_20151211044755_00002.zip
Parsing file  BostonGlobe/BG_20151211001213_00002.zip
Parsing file  BostonGlobe/BG_20151211044756_00003.zip
Parsing file  BostonGlobe/BG_20151211001315_00003.zip
Parsing file  BostonGlobe/BG_20151211044857_00004.zip
Parsing file  BostonGlobe/BG_20151211001416_00004.zip
Parsing file  BostonGlobe/BG_20151211044858_00005.zip
Parsing file  BostonGlobe/BG_20151211001417_00005.zip
Parsing file  BostonGlobe/BG_20151211044900_00007.zip
Parsing file  BostonGlobe/BG_20151211001521_00006.zip
Parsing file  BostonGlobe/BG_20151211044959_00006.zip
Parsing file  BostonGlobe/BG_20151211001623_00007.zip
Parsing file  BostonGlobe/BG_20151211045001_00008.zip
Parsing file  BostonGlobe/BG_20151211001724_00008.zip
Parsing file  BostonGlobe/BG_20151211045002_00009.zip
Parsing file  BostonGlobe/BG_20151211002628_00001.zip
Parsing file  BostonGlobe/BG_20151211045103_00010.zip
Parsing file  BostonGlobe/BG_20151211002730_00002.zip
Parsing file  BostonGlobe/BG_20151211045104_00011.zip
Parsing file  BostonGlobe/BG_20151211002832_00003.zip
Parsing file  BostonGlobe/BG_20151211045105_00012.zip
Parsing file  BostonGlobe/BG_20151211002933_00004.zip
Parsing file  BostonGlobe/BG_20151211045206_00013.zip
Parsing file  BostonGlobe/BG_20151211002934_00005.zip
Parsing file  BostonGlobe/BG_20151211045207_00014.zip
Parsing file  BostonGlobe/BG_20151211003037_00006.zip
Parsing file  BostonGlobe/BG_20151211045308_00015.zip
Time elapsed =  50.90747254656421 hours. Parsing of  BostonGlobe_3  is complete.
slurmstepd: error: Exceeded step memory limit at some point.
slurmstepd: error: This may or may not result in some failure. The SLURM utilizes Linux cgroups for resource containment. For reference please read the explanation in the bug report: https://bugs.schedmd.com/show_bug.cgi?id=3214#c4
