newspaper year sum_numbertokens sum_numbercorrect avg_numbertokens avg_numbercorrect avg_ocraccuracy max_ocraccuracy min_ocraccuracy
AmericanHebrewJewishMessenger 1857 715474 667956 18828.2631578947 17577.7894736842 0.935718186223726 0.971576227390181 0.857142857142857
AmericanHebrewJewishMessenger 1858 1094042 1009194 30390.0555555556 28033.1666666667 0.925175190905886 0.963605823068309 0.891342756183746
AmericanHebrewJewishMessenger 1859 1663310 1488074 55443.6666666667 49602.4666666667 0.901569801388926 0.958677685950413 0.884430035923946
AmericanHebrewJewishMessenger 1860 1826780 1555072 65242.1428571429 55538.2857142857 0.852658403339481 0.920614117206516 0.804901489668429
AmericanHebrewJewishMessenger 1861 1417324 1245936 59055.1666666667 51914 0.865248139099851 0.93380311765962 0.761904761904762
AmericanHebrewJewishMessenger 1862 1771308 1563296 46613.3684210526 41139.3684210526 0.875549208016238 0.950819672131147 0.77952380952381
AmericanHebrewJewishMessenger 1863 1940582 1656778 53905.0555555556 46021.6111111111 0.855477042395579 0.930346820809249 0.782092772384035
AmericanHebrewJewishMessenger 1864 2016772 1654714 56021.4444444444 45964.2777777778 0.822879149728879 0.929712460063898 0.757413125012951
AmericanHebrewJewishMessenger 1865 2041006 1665014 56694.6111111111 46250.3888888889 0.816997742281553 0.910849056603774 0.752432432432432
AmericanHebrewJewishMessenger 1866 2869500 2406532 75513.1578947368 63329.7894736842 0.843954816322317 0.9244223991646 0.677290836653386
AmericanHebrewJewishMessenger 1867 3219372 2652280 84720.3157894737 69796.8421052632 0.818079705216828 0.844857557885713 0.786299765807963
AmericanHebrewJewishMessenger 1868 3143448 2621002 82722.3157894737 68973.7368421053 0.825866170541219 0.932505175983437 0.595305164319249
AmericanHebrewJewishMessenger 1869 3334874 2765340 87759.8421052632 72772.1052631579 0.828994520005277 0.887685964362356 0.735718769617075
AmericanHebrewJewishMessenger 1870 3190988 2668440 83973.3684210526 70222.1052631579 0.835475117698014 0.869829839704069 0.805469830797063
AmericanHebrewJewishMessenger 1871 3173676 2684804 83517.7894736842 70652.7368421053 0.837636892302559 0.882464976509925 0.742047506598139
AmericanHebrewJewishMessenger 1872 3073460 2503760 80880.5263157895 65888.4210526316 0.813071588907809 0.880104994981857 0.723807240469911
AmericanHebrewJewishMessenger 1873 3103334 2612236 81666.6842105263 68743.0526315789 0.850189737509267 0.897151313355531 0.817420395767095
AmericanHebrewJewishMessenger 1874 3060394 2550870 80536.6842105263 67128.1578947368 0.831455289228726 0.893362350380849 0.674219752030782
AmericanHebrewJewishMessenger 1875 3185796 2664580 83836.7368421053 70120.5263157895 0.839544885932328 0.897314161692892 0.769043323414326
AmericanHebrewJewishMessenger 1876 2973706 2534632 82602.9444444444 70406.4444444444 0.856290200949081 0.913163716814159 0.807578996014095
AmericanHebrewJewishMessenger 1877 2938552 2396490 77330.3157894737 63065.5263157895 0.808061671844164 0.851499798233421 0.725622232969977
AmericanHebrewJewishMessenger 1878 2961658 2535944 82268.2777777778 70442.8888888889 0.85458157582528 0.897523709167545 0.808646452923255
AmericanHebrewJewishMessenger 1879 3157988 2701622 83104.9473684211 71095.3157894737 0.849610528186757 0.922201434362332 0.748266505878806
AmericanHebrewJewishMessenger 1880 4738698 4074380 124702.578947368 107220.526315789 0.866478665085603 0.903813050115301 0.830985086573208
AmericanHebrewJewishMessenger 1881 4500206 3989086 118426.473684211 104975.947368421 0.889378623163893 0.914335577162802 0.865143732540326
AmericanHebrewJewishMessenger 1882 4522280 3914250 119007.368421053 103006.578947368 0.866651244376705 0.899930882179403 0.817080665305394
AmericanHebrewJewishMessenger 1883 5086740 4354876 133861.578947368 114602 0.859918435209328 0.908104172871372 0.803496901479702
AmericanHebrewJewishMessenger 1884 4909834 4088758 129206.157894737 107598.894736842 0.832147735986823 0.875542121172296 0.793036083658929
AmericanHebrewJewishMessenger 1885 5042834 4336324 132706.157894737 114113.789473684 0.859552911546242 0.911440107671602 0.81193100143747
AmericanHebrewJewishMessenger 1886 5362750 4688038 141125 123369.421052632 0.868932329659248 0.897158927487137 0.836693523124538
AmericanHebrewJewishMessenger 1887 5737352 5227262 150982.947368421 137559.526315789 0.907815906309591 0.918709390439576 0.855217391304348
AmericanHebrewJewishMessenger 1888 5596646 5077030 147280.157894737 133606.052631579 0.906770450622824 0.925362333013867 0.88779325949744
AmericanHebrewJewishMessenger 1889 5816284 5110908 153060.105263158 134497.578947368 0.878104431295453 0.922037422037422 0.852472927850647
AmericanHebrewJewishMessenger 1890 6929766 6214052 182362.263157895 163527.684210526 0.89591778861419 0.912332750841136 0.863832339819293
AmericanHebrewJewishMessenger 1891 6759212 6065756 177874 159625.157894737 0.894428945642658 0.90475591768144 0.872903466269102
AmericanHebrewJewishMessenger 1892 6074102 5527548 159844.789473684 145461.789473684 0.902308106045957 0.918774686155627 0.864840989399293
AmericanHebrewJewishMessenger 1893 5689700 5230282 149728.947368421 137639 0.924409309162029 0.945482866043614 0.907839864317266
AmericanHebrewJewishMessenger 1894 5152266 4735718 135585.947368421 124624.157894737 0.919019911967007 0.94849979997333 0.844417140224236
AmericanHebrewJewishMessenger 1895 4926024 4471106 129632.210526316 117660.684210526 0.91108269953178 0.955988272037733 0.883004593353148
AmericanHebrewJewishMessenger 1896 5064764 4639752 133283.263157895 122098.736842105 0.915179401744399 0.929410590075548 0.883753202391119
AmericanHebrewJewishMessenger 1897 5040756 4609936 132651.473684211 121314.105263158 0.91643782975714 0.946375372393247 0.901202638044743
AmericanHebrewJewishMessenger 1898 4993002 4528654 146853 133195.705882353 0.912202715034717 0.952508470871133 0.876979472140762
AmericanHebrewJewishMessenger 1899 5155680 4680414 151637.647058824 137659.235294118 0.910310666966707 0.933443489755453 0.88731103261342
AmericanHebrewJewishMessenger 1900 4490114 4055248 118160.894736842 106717.052631579 0.902352513329575 0.92383949433422 0.831966880428606
AmericanHebrewJewishMessenger 1901 4244476 3801770 111696.736842105 100046.578947368 0.8959230976227 0.92274199352285 0.859749785950698
AmericanHebrewJewishMessenger 1902 4014046 3607420 105632.789473684 94932.1052631579 0.903146593210478 0.953546059307701 0.836596594375728
AmericanHebrewJewishMessenger 1903 3004160 2774396 83448.8888888889 77066.5555555556 0.921930815391697 0.962133891213389 0.892330383480826
AmericanHebrewJewishMessenger 1904 3047474 2764974 84652.0555555556 76804.8333333333 0.904383533892267 0.923845193508115 0.860316265060241
AmericanHebrewJewishMessenger 1905 3363428 3083420 93428.5555555556 85650.5555555556 0.917032400514525 0.929027741314431 0.90632069299829
AmericanHebrewJewishMessenger 1906 2882536 2579042 80070.4444444444 71640.0555555556 0.892804283208329 0.912316508360154 0.861094182176176
AmericanHebrewJewishMessenger 1907 3117520 2789430 86597.7777777778 77484.1666666667 0.896454797451096 0.917130954173568 0.884974898398279
AmericanHebrewJewishMessenger 1908 3075204 2842220 85422.3333333333 78950.5555555556 0.923548867925194 0.937332093407729 0.908068377972047
AmericanHebrewJewishMessenger 1909 3165718 2919136 87936.6111111111 81087.1111111111 0.919064445487039 0.942330441640379 0.863354037267081
AmericanHebrewJewishMessenger 1910 3225090 2977554 89585.8333333333 82709.8333333333 0.92388347554264 0.955038759689922 0.910618937790275
AmericanHebrewJewishMessenger 1911 3823920 3551114 106220 98642.0555555556 0.927811328428994 0.945143754178901 0.903960276129345
AmericanHebrewJewishMessenger 1912 3373932 3105498 93720.3333333333 86263.8333333333 0.921216694441963 0.947550226316207 0.902716914986854
AmericanHebrewJewishMessenger 1913 3399348 3098142 94426.3333333333 86059.5 0.911799472468359 0.953243717124489 0.889339622641509
AmericanHebrewJewishMessenger 1914 3535476 3239588 98207.6666666667 89988.5555555556 0.917584507046093 0.925980468144474 0.903895264263779
AmericanHebrewJewishMessenger 1915 3515596 3161364 97655.4444444444 87815.6666666667 0.898091802866458 0.921714079942384 0.873178104869183
AmericanHebrewJewishMessenger 1916 3956386 3616228 109899.611111111 100450.777777778 0.912323229212287 0.925964435202218 0.888358910548873
AmericanHebrewJewishMessenger 1917 3536734 3301514 98242.6111111111 91708.7222222222 0.934633444713801 0.946034816247582 0.929966910599663
AmericanHebrewJewishMessenger 1918 3365610 3176876 93489.1666666667 88246.5555555556 0.944447265695676 0.952937843962447 0.938061479291639
AmericanHebrewJewishMessenger 1919 2689200 2508482 74700 69680.0555555556 0.932166474194838 0.939491074956003 0.921054378859306
AmericanHebrewJewishMessenger 1920 2817192 2633630 78255.3333333333 73156.3888888889 0.933888575430518 0.941259055427641 0.912319644839068
AmericanHebrewJewishMessenger 1921 2666076 2480218 74057.6666666667 68894.9444444444 0.927052609987022 0.939282069752086 0.901558461899914
AmericanHebrewJewishMessenger 1922 2974468 2762126 82624.1111111111 76725.7222222222 0.930064786384078 0.956824409390506 0.910269192422732
