newspaper year sum_numbertokens sum_numbercorrect avg_numbertokens avg_numbercorrect avg_ocraccuracy max_ocraccuracy min_ocraccuracy
NewYorkTimes 1851 3308533 2587600 97309.7941176471 76105.8823529412 0.781162929945121 0.815746225422386 0.743325568894463
NewYorkTimes 1852 15235160 12306175 448092.941176471 361946.323529412 0.808624002079628 0.832794199665365 0.780837674537769
NewYorkTimes 1853 22112864 17420724 650378.352941177 512374.235294118 0.788082948010966 0.805574936843733 0.765214131399964
NewYorkTimes 1854 23207455 17863754 682572.205882353 525404.529411765 0.770558662162943 0.808030602137091 0.749664031338013
NewYorkTimes 1855 21921497 17497605 644749.911764706 514635.441176471 0.797671683088761 0.819662441715374 0.779791302547363
NewYorkTimes 1856 21221027 15229135 624147.852941177 447915.735294118 0.717239240696889 0.738905450897079 0.689351773150763
NewYorkTimes 1857 21019253 15913338 124374.278106509 94161.7633136095 0.720360457577049 0.802794930126747 0.601485586276012
NewYorkTimes 1858 21997593 16717595 162945.133333333 123834.037037037 0.75956140814001 0.812810873177545 0.677936312652787
NewYorkTimes 1859 21846177 15131638 161823.533333333 112086.207407407 0.693368131829822 0.764835054647548 0.618981185777838
NewYorkTimes 1860 22838260 17511554 169172.296296296 129715.214814815 0.767017870439604 0.812797755641601 0.731786616161616
NewYorkTimes 1861 23396559 16979933 172033.522058824 124852.448529412 0.725205442493777 0.765335634167386 0.672552956304
NewYorkTimes 1862 23797750 16242840 174983.455882353 119432.647058824 0.683246141911919 0.750168971302709 0.639328578508479
NewYorkTimes 1863 23361221 17128029 171773.683823529 125941.389705882 0.733207631824629 0.791229191562682 0.681768503713898
NewYorkTimes 1864 23505553 18196549 172834.948529412 133798.154411765 0.774615104244518 0.80436731219729 0.740197713932654
NewYorkTimes 1865 24511417 17395941 180231.007352941 127911.330882353 0.709677529682901 0.756298575453038 0.642653201020835
NewYorkTimes 1866 27335571 18873539 200996.845588235 138776.022058824 0.690586361955971 0.769277115032809 0.638760550866282
NewYorkTimes 1867 26334507 18303913 193636.080882353 134587.595588235 0.694993789282664 0.760336851668121 0.606830295111885
NewYorkTimes 1868 27272220 17206523 200531.029411765 126518.551470588 0.630205103898813 0.681700740432468 0.569679032504975
NewYorkTimes 1869 25557036 12603747 187919.382352941 92674.6102941177 0.492537804408413 0.563190166114899 0.315789473684211
NewYorkTimes 1870 23867265 15276755 175494.595588235 112329.080882353 0.641589701481467 0.858034083992696 0.579302661622122
NewYorkTimes 1871 26434730 21315967 195812.814814815 157896.051851852 0.805644035605634 0.836040183461117 0.721797884841363
NewYorkTimes 1872 27039430 21400815 198819.338235294 157358.933823529 0.792069455487209 0.831171308660816 0.757356875334403
NewYorkTimes 1873 27999002 21516077 205875.014705882 158206.448529412 0.768216169745262 0.862872923174431 0.728067618770038
NewYorkTimes 1874 30680109 23511315 225589.036764706 172877.316176471 0.766168015663297 0.82137489122696 0.721596122626638
NewYorkTimes 1875 32390624 23631054 238166.352941176 173757.75 0.728521776649216 0.769420294245353 0.68656346749226
NewYorkTimes 1876 29375780 21573571 215998.382352941 158629.198529412 0.733456919420693 0.779166224352072 0.572960095294818
NewYorkTimes 1877 28683045 20199087 210904.742647059 148522.698529412 0.701940972108753 0.743865675406253 0.453625170998632
NewYorkTimes 1878 30203009 23247256 222080.948529412 170935.705882353 0.770374810778689 0.92 0.715406856670797
NewYorkTimes 1879 30995750 24583859 227909.926470588 180763.669117647 0.791618598849649 0.843262059940796 0.479166666666667
NewYorkTimes 1880 31526093 25316345 233526.614814815 187528.481481481 0.802419560849874 0.830922538803469 0.708011203407063
NewYorkTimes 1881 32222673 25048381 236931.419117647 184179.272058824 0.778133014785641 0.899299247339735 0.725501298127382
NewYorkTimes 1882 32758981 24759395 240874.860294118 182054.375 0.756844401211401 0.925697598961713 0.719439275972325
NewYorkTimes 1883 32069203 25016812 235802.963235294 183947.147058824 0.781706123528522 0.918518518518519 0.74652768064453
NewYorkTimes 1884 32557446 26384520 239392.985294118 194003.823529412 0.809633081228737 0.834341582645891 0.746867167919799
NewYorkTimes 1885 31901090 25405452 234566.838235294 186804.794117647 0.795533106567852 0.836362879887571 0.754791441768277
NewYorkTimes 1886 31782812 25178135 233697.147058824 185133.345588235 0.793027322922806 0.852034768866061 0.75124033860876
NewYorkTimes 1887 31490389 24685371 231546.977941176 181510.080882353 0.784616739407694 0.858971320218061 0.744134367629616
NewYorkTimes 1888 31436989 23884724 229467.072992701 174341.051094891 0.760674895688051 0.799680578101272 0.722484522321936
NewYorkTimes 1889 31823099 23960268 233993.375 176178.441176471 0.752866703910436 0.794947903374352 0.717348036147092
NewYorkTimes 1890 34225136 27953680 251655.411764706 205541.764705882 0.81699263508985 0.858835765557975 0.782770009134987
NewYorkTimes 1891 34777159 28514029 255714.404411765 209661.977941176 0.820398324220381 0.88481213617922 0.76863062181274
NewYorkTimes 1892 39307893 33867127 159141.267206478 137113.874493927 0.877471445735733 0.959427207637232 0.580909090909091
NewYorkTimes 1893 39803652 34058753 268943.594594595 230126.709459459 0.851814564388863 0.989455184534271 0.44963503649635
NewYorkTimes 1894 43735863 38043090 299560.705479452 260569.109589041 0.870487864391131 0.960189573459716 0.755813953488372
NewYorkTimes 1895 50079947 42289838 350209.41958042 295733.132867133 0.843010018084907 0.952234206471495 0.662420382165605
NewYorkTimes 1896 45198101 39082743 175868.097276265 152072.929961089 0.872399609330864 0.979831932773109 0.724137931034483
NewYorkTimes 1897 41407942 34664011 276052.946666667 231093.406666667 0.841619455401959 0.962732919254658 0.777730736663844
NewYorkTimes 1898 43913248 37143158 222909.888324873 188543.949238579 0.866521088929005 0.973251028806584 0.671544715447154
NewYorkTimes 1899 46805340 39259132 298123.184713376 250058.165605096 0.843261749901057 0.98090692124105 0.635036496350365
NewYorkTimes 1900 46403019 40394237 181972.623529412 158408.77254902 0.890000905755918 0.984848484848485 0.792226350385825
NewYorkTimes 1901 49086134 41500987 203676.904564315 172203.265560166 0.870796432546571 1 0.167630057803468
NewYorkTimes 1902 50019204 42649086 199279.697211155 169916.677290837 0.876840026763239 1 0.484350300347771
NewYorkTimes 1903 51254214 43062684 210922.691358025 177212.691358025 0.866845101193021 0.970437017994859 0.571254567600487
NewYorkTimes 1904 44983045 36574217 220505.12254902 179285.37745098 0.836038000620504 0.989031078610603 0.650781370880396
NewYorkTimes 1905 43334868 34075001 257945.642857143 202827.386904762 0.786501101235788 0.955056179775281 0.5
NewYorkTimes 1906 44294923 36185170 253113.845714286 206772.4 0.818757738041033 0.939759036144578 0.70696224454451
NewYorkTimes 1907 46937944 37353644 263696.314606742 209851.93258427 0.795801578656877 0.858509900608676 0.684153134301966
NewYorkTimes 1908 45652464 36463892 257923.525423729 206010.689265537 0.797177986453244 0.86548961779124 0.722229819043712
NewYorkTimes 1909 48513515 38392433 274087.655367232 216906.401129943 0.791395300880044 0.885228480340064 0.662650014635574
NewYorkTimes 1910 52373278 43463457 295894.225988701 245556.254237288 0.830776665471519 0.911372950819672 0.775631976207955
NewYorkTimes 1911 54824417 43450118 239407.934497817 189738.506550218 0.8034143646961 0.973239436619718 0.55640535372849
NewYorkTimes 1912 59897088 47721149 338401.627118644 269611.011299435 0.7970415383741 0.854098232441733 0.701271186440678
NewYorkTimes 1913 58360287 46164627 327866.780898876 259351.837078652 0.790014967130858 0.946815718157182 0.541823332040668
NewYorkTimes 1914 55098825 44305044 278276.893939394 223762.848484848 0.807448048622739 0.967353951890034 0.437898089171975
NewYorkTimes 1915 58621572 47439392 329334.674157303 266513.438202247 0.807712156533343 0.896999690689762 0.241379310344828
NewYorkTimes 1916 59139332 45876374 328551.844444444 254868.744444444 0.777434466033823 0.893847372590441 0.63653947599789
NewYorkTimes 1917 56745020 42343905 295546.979166667 220541.171875 0.749210299773909 1 0.191489361702128
NewYorkTimes 1918 58293702 42327955 448413.092307692 325599.653846154 0.725391518903031 0.814289685849319 0.602648410053148
NewYorkTimes 1919 67240359 48550499 517233.530769231 373465.376923077 0.723098469097779 0.798831548198637 0.647094492167761
NewYorkTimes 1920 72137280 53240744 400762.666666667 295781.911111111 0.732389348037076 0.848882265275708 0.464
NewYorkTimes 1921 75370960 57080016 566698.947368421 429173.052631579 0.756268325323229 0.963934426229508 0.594752186588921
NewYorkTimes 1922 82000458 60445309 476746.848837209 351426.215116279 0.733051543682193 1 0.48567483603728
NewYorkTimes 1923 84851133 69742747 413907.965853659 340208.52195122 0.825270596521797 0.986692015209126 0.410088025709096
NewYorkTimes 1924 90690908 70594848 446753.24137931 347757.871921182 0.791677171901067 0.975757575757576 0.610346158795522
NewYorkTimes 1925 97551382 76209232 482927.633663366 377273.425742574 0.785048939609264 0.918555240793201 0.549328859060403
NewYorkTimes 1926 103733458 82112414 518667.29 410562.07 0.79252137460336 0.950095969289827 0.258736971183323
NewYorkTimes 1927 102782892 77304457 538130.32460733 404735.376963351 0.760753883928577 0.992481203007519 0.514264813460132
NewYorkTimes 1928 106829951 79175884 580597.559782609 430303.717391304 0.740306559407278 0.935399843709299 0.368488794669897
NewYorkTimes 1929 109805307 78096269 825603.812030075 587189.992481203 0.721302488296124 0.920454545454545 0.617327072835547
NewYorkTimes 1930 104121179 83678189 588255.248587571 472758.129943503 0.804248952321073 0.861045952701404 0.723623414086233
NewYorkTimes 1931 101904807 81567658 575733.372881356 460834.225988701 0.799294024002567 0.863218871831017 0.686283208490453
NewYorkTimes 1932 93557057 77941641 492405.563157895 410219.163157895 0.832952210490087 0.970922882427307 0.435253054101222
NewYorkTimes 1933 84822589 70778439 481946.528409091 402150.221590909 0.83966601961375 0.948008102633356 0.52023860247124
NewYorkTimes 1934 88143864 72745167 473891.741935484 391103.048387097 0.832854802640309 0.973451327433628 0.504825237207039
NewYorkTimes 1935 89593650 74164415 464215.803108808 384271.580310881 0.835193883115982 0.973221757322176 0.581081081081081
NewYorkTimes 1936 93196697 77796170 485399.463541667 405188.385416667 0.837899806546159 0.981132075471698 0.574209245742092
NewYorkTimes 1937 96987427 78893027 473109.4 384844.034146341 0.823274369813989 0.940816326530612 0.485364875701684
